TreePineForestSnow02 [TREE:0005C071] Billboard found textures\terrain\lodgen\skyrim.esm\treepineforestsnow02_0005c071.dds EA4788C3 711.794372558594x2530.82446289062 1
TreePineForestSnow03 [TREE:0005C070] Billboard found textures\terrain\lodgen\skyrim.esm\treepineforestsnow03_0005c070.dds D7A3331D 376.196136474609x891.724182128906 1
TreePineForestSnow04 [TREE:0005C06F] Billboard found textures\terrain\lodgen\skyrim.esm\treepineforestsnow04_0005c06f.dds 3680008F 671.088195800781x2147.48217773438 1
TreePineForestSnow05 [TREE:0005C06E] Billboard found textures\terrain\lodgen\skyrim.esm\treepineforestsnow05_0005c06e.dds 8AE59609 496.1015625x1511.92858886719 1
TreeTundraDriftWoodTree01 [TREE:000B8F53] Billboard found textures\terrain\lodgen\skyrim.esm\tundradriftwood01_000b8f53.dds C6F70504 428.793029785156x596.581604003906 1
