DLC2TreePineForestAsh01 [TREE:04017F72] Billboard found textures\terrain\lodgen\dragonborn.esm\treepineforestash01_00017f72.dds C7348B31 950.625244140625x2535.00073242187 1
DLC2TreePineForestAsh02 [TREE:04017F73] Billboard found textures\terrain\lodgen\dragonborn.esm\treepineforestash02_00017f73.dds 3C13BDD2 708.969787597656x2520.78149414062 1
DLC2TreePineForestAsh03 [TREE:04017F74] Billboard found textures\terrain\lodgen\dragonborn.esm\treepineforestash03_00017f74.dds 10F6F1CF 385.390899658203x880.893493652344 1
DLC2TreePineForestAsh04 [TREE:04017F75] Billboard found textures\terrain\lodgen\dragonborn.esm\treepineforestash04_00017f75.dds 68E3663C 668.435729980469x2138.99438476562 1
DLC2TreePineForestAsh05 [TREE:04017F76] Billboard found textures\terrain\lodgen\dragonborn.esm\treepineforestash05_00017f76.dds 2E19812B 466.785186767578x1493.71264648438 1
DLC2TreePineForestAshL01 [TREE:04017F6E] Billboard found textures\terrain\lodgen\dragonborn.esm\treepineforestashl01_00017f6e.dds 2D6ACF3B 950.625244140625x2535.00073242187 1
DLC2TreePineForestAshL02 [TREE:04017F6D] Billboard found textures\terrain\lodgen\dragonborn.esm\treepineforestashl02_00017f6d.dds 680B1CF9 708.969787597656x2520.78149414062 1
DLC2TreePineForestAshL03 [TREE:04017F6F] Billboard found textures\terrain\lodgen\dragonborn.esm\treepineforestashl03_00017f6f.dds 58E37449 385.390899658203x880.893493652344 1
DLC2TreePineForestAshL04 [TREE:04017F70] Billboard found textures\terrain\lodgen\dragonborn.esm\treepineforestashl04_00017f70.dds C44687DC 668.435729980469x2138.99438476562 1
DLC2TreePineForestAshL05 [TREE:04017F71] Billboard found textures\terrain\lodgen\dragonborn.esm\treepineforestashl05_00017f71.dds 2FA1C4C1 466.785186767578x1493.71264648438 1
DLC2TreePineForestDeadAshL01 [TREE:04017F5A] Billboard found textures\terrain\lodgen\dragonborn.esm\treepineforestdeadashl01_00017f5a.dds B2EB2E0F 943.110473632813x2514.96118164062 1
DLC2TreePineForestDeadAshL02 [TREE:04017F5B] Billboard found textures\terrain\lodgen\dragonborn.esm\treepineforestdeadashl02_00017f5b.dds F6561F13 708.969787597656x2520.78149414062 1
DLC2TreePineForestDeadAshL03 [TREE:04017F5C] Billboard found textures\terrain\lodgen\dragonborn.esm\treepineforestdeadashl03_00017f5c.dds EE469F4C 369.59619140625x909.775268554687 1
DLC2TreePineForestDeadAshL04 [TREE:04017F60] Billboard found textures\terrain\lodgen\dragonborn.esm\treepineforestdeadashl04_00017f60.dds CD4F10CB 704.642700195313x2147.482421875 1
DLC2TreePineForestDeadAshL05 [TREE:04017F62] Billboard found textures\terrain\lodgen\dragonborn.esm\treepineforestdeadashl05_00017f62.dds 2B8C0E8A 455.400207519531x1457.28063964844 1
TreePineForestSnow01 [TREE:0005C072] Billboard found textures\terrain\lodgen\skyrim.esm\treepineforestsnow01_0005c072.dds A40522FC 990.254516601562x2535.05151367187 1
TreePineForestSnow01Dead [TREE:000EF5A5] Billboard found textures\terrain\lodgen\skyrim.esm\letreepineforestdeadsnow01_000ef5a5.dds EEE7D07B 2162.80737304687x1774.61120605469 1
TreePineForestSnow02 [TREE:0005C071] Billboard found textures\terrain\lodgen\skyrim.esm\treepineforestsnow02_0005c071.dds EA4788C3 711.794372558594x2530.82446289062 1
TreePineForestSnow02Dead [TREE:000EF5A4] Billboard found textures\terrain\lodgen\skyrim.esm\treepineforestdeadsnow02_000ef5a4.dds E766CEC0 666.914916992188x2510.73852539062 1
TreePineForestSnow03 [TREE:0005C070] Billboard found textures\terrain\lodgen\skyrim.esm\treepineforestsnow03_0005c070.dds D7A3331D 376.196136474609x891.724182128906 1
TreePineForestSnow03Dead [TREE:000EF5A3] Billboard found textures\terrain\lodgen\skyrim.esm\letreepineforestdeadsnow03_000ef5a3.dds CBA08A77 201.90119934082x807.604797363281 1
TreePineForestSnow04 [TREE:0005C06F] Billboard found textures\terrain\lodgen\skyrim.esm\treepineforestsnow04_0005c06f.dds 3680008F 671.088195800781x2147.48217773438 1
TreePineForestSnow04Dead [TREE:000EF5A2] Billboard found textures\terrain\lodgen\skyrim.esm\letreepineforestdeadsnow04_000ef5a2.dds F76A6D11 543.350952148438x2483.89013671875 1
TreePineForestSnow05 [TREE:0005C06E] Billboard found textures\terrain\lodgen\skyrim.esm\treepineforestsnow05_0005c06e.dds 8AE59609 496.1015625x1511.92858886719 1
TreePineForestSnow05Dead [TREE:000EF5A1] Billboard found textures\terrain\lodgen\skyrim.esm\letreepineforestdeadsnow05_000ef5a1.dds 8B60436D 1909.18249511719x1328.126953125 1
TreePineForestSnowL01 [TREE:0005D2DB] Billboard found textures\terrain\lodgen\skyrim.esm\treepineforestsnowl01_0005d2db.dds 0E0CE40E 943.12939453125x2515.01171875 1
TreePineForestSnowL02 [TREE:0005D2DA] Billboard found textures\terrain\lodgen\skyrim.esm\treepineforestsnowl02_0005d2da.dds 1E2CF497 666.914916992188x2510.73852539062 1
TreePineForestSnowL02Dead [TREE:000EF59F] Billboard found textures\terrain\lodgen\skyrim.esm\letreepineforestdeadsnowl02_000ef59f.dds 05163573 1510.6953125x1239.544921875 1
TreePineForestSnowL03 [TREE:0005D2D9] Billboard found textures\terrain\lodgen\skyrim.esm\treepineforestsnowl03_0005d2d9.dds 59616CAC 385.390899658203x880.893493652344 1
TreePineForestSnowL03Dead [TREE:000EF59E] Billboard found textures\terrain\lodgen\skyrim.esm\letreepineforestdeadsnowl03_000ef59e.dds 6E33B94C 873.93115234375x1035.77026367188 1
TreePineForestSnowL04 [TREE:0005D2D8] Billboard found textures\terrain\lodgen\skyrim.esm\treepineforestsnowl04_0005d2d8.dds A5A3A418 663.130554199219x2122.01782226562 1
TreePineForestSnowL04Dead [TREE:000EF59D] Billboard found textures\terrain\lodgen\skyrim.esm\treepineforestdeadsnowl04_000ef59d.dds CF4300FA 720.690307617187x2096.5537109375 1
TreePineForestSnowL05 [TREE:0005D2D7] Billboard found textures\terrain\lodgen\skyrim.esm\treepineforestsnowl05_0005d2d7.dds C1C0073D 464.8876953125x1487.640625 1
TreePineForestSnowL05Dead [TREE:000EF59C] Billboard found textures\terrain\lodgen\skyrim.esm\treepineforestdeadsnowl05_000ef59c.dds F574C33A 447.810180664063x1432.99255371094 1
TreeTundraDriftWoodTree01 [TREE:000B8F53] Billboard found textures\terrain\lodgen\skyrim.esm\tundradriftwood01_000b8f53.dds C6F70504 428.793029785156x596.581604003906 1
