textures\dlc01\lod\dfloor01lod.dds,8,textures\dlc01\lod\dfloor01lod_n.dds,
textures\dlc01\lod\dlc01dawnguardcastle01lod.dds,8,textures\dlc01\lod\dlc01dawnguardcastle01lod_n.dds,
textures\dlc01\lod\dlc01dawnguardcastle02lod.dds,8,textures\dlc01\lod\dlc01dawnguardcastle02lod_n.dds,
textures\lod\dirt02lod.dds,8,textures\lod\dirt02lod_n.dds,
textures\lod\dirtcliffs01lod.dds,8,textures\lod\dirtcliffs01lod_n.dds,
textures\lod\fallforestgrass01lod.dds,8,textures\lod\fallforestgrass01lod_n.dds,
textures\lod\fallforestleaves01lod.dds,8,textures\lod\fallforestleaves01lod_n.dds,
textures\lod\farmhouselod01.dds,8,textures\lod\farmhouselod01_n.dds,
textures\lod\fieldgrass02lod.dds,8,textures\lod\fieldgrass02lod_n.dds,
textures\lod\glacierpillarlod.dds,8,textures\lod\glacierpillarlod_n.dds,
textures\lod\glacierslab01lod.dds,8,textures\lod\glacierslab01lod_n.dds,
textures\lod\glacierslablod.dds,8,textures\lod\glacierslablod_n.dds,
textures\lod\mountainpeak01lod.dds,8,textures\lod\mountainpeak01lod_n.dds,
textures\lod\mountainslablod.dds,8,textures\lod\mountainslablod_n.dds,
textures\lod\mountaintrimalphalod.dds,8,textures\lod\mountaintrimalphalod_n.dds,
textures\lod\mtncliff03lod.dds,8,textures\lod\mtncliff03lod_n.dds,
textures\lod\mtncliff04lod.dds,8,textures\lod\mtncliff04lod_n.dds,
textures\lod\mtncliffsm01lod.dds,8,textures\lod\mtncliffsm01lod_n.dds,
textures\lod\mtnpeak02lod.dds,8,textures\lod\mtnpeak02lod_n.dds,
textures\lod\mtnridge01lod.dds,8,textures\lod\mtnridge01lod_n.dds,
textures\lod\mtnridge02lod.dds,8,textures\lod\mtnridge02lod_n.dds,
textures\lod\mtnridge03lod.dds,8,textures\lod\mtnridge03lod_n.dds,
textures\lod\mtntrimslablod.dds,8,textures\lod\mtntrimslablod_n.dds,
textures\lod\rivermudlod.dds,8,textures\lod\rivermudlod_n.dds,
textures\lod\rocks01lod.dds,8,textures\lod\rocks01lod_n.dds,
textures\lod\shiplod.dds,8,textures\lod\shiplod_n.dds,
textures\lod\shipwoodside01lod.dds,8,textures\lod\shipwoodside01lod_n.dds,
textures\lod\snow01landscapelod.dds,8,textures\lod\snow01landscapelod_n.dds,
textures\lod\snow01lod.dds,8,textures\lod\snow01lod_n.dds,
textures\lod\snowrocks01lod.dds,8,textures\lod\snowrocks01lod_n.dds,
textures\lod\stockadeplanks01lod.dds,8,textures\lod\stockadeplanks01lod_n.dds,
textures\lod\stockadewood01lod.dds,8,textures\lod\stockadewood01lod_n.dds,
textures\lod\stockadewood01mixlod.dds,8,textures\lod\stockadewood01mixlod_n.dds,
textures\lod\tundrarocks01lod.dds,8,textures\lod\tundrarocks01lod_n.dds,
textures\lod\wovenfence01lod.dds,8,textures\lod\wovenfence01lod_n.dds,
textures\lod\wrwoodbeam01lod.dds,8,textures\lod\wrwoodbeam01lod_n.dds,
