TreeSoulCairnTree01 "Withered Tree" [TREE:02004332] Billboard found textures\terrain\lodgen\dawnguard.esm\soulcairntree01_l1_00004332.dds 359A088D 318.964416503906x364.53076171875 1
TreeSoulCairnTree02 "Withered Tree" [TREE:02004333] Billboard found textures\terrain\lodgen\dawnguard.esm\soulcairntree02_l1_00004333.dds 288F7203 544.720520019531x757.872009277344 1
TreeSoulCairnTree03 "Withered Tree" [TREE:02004334] Billboard found textures\terrain\lodgen\dawnguard.esm\soulcairntree03_l1_00004334.dds 5D5F5486 384.635864257812x341.898559570313 1
TreeSoulCairnTreeGroup "Withered Trees" [TREE:0200DDB5] Billboard found textures\terrain\lodgen\dawnguard.esm\soulcairntreegroup01_l1_0000ddb5.dds 1570BB7A 652.355285644531x745.548889160156 1
