textures\dlc01\lod\dlc01glacierslablod.dds,8,textures\dlc01\lod\dlc01glacierslablod_n.dds,
textures\dlc02\landscape\trees\treepineforestbranchcompash.dds,7,textures\landscape\trees\treepineforestbranchcompsnow_n.dds,
textures\dlc02\lod\apoexttowerbase01_lod.dds,8,textures\dlc02\lod\apoexttowerbase01_lod_n.dds,
textures\dlc02\lod\dlc2dweonyxflatsquare01lod.dds,8,textures\dlc02\lod\dlc2dweonyxflatsquare01lod_n.dds,
textures\dlc02\lod\dlc2dweruins01_lod.dds,8,textures\dlc02\lod\dlc2dweruins01_lod_n.dds,
textures\dlc02\lod\dlc2dweruins02_lod.dds,8,textures\dlc02\lod\dlc2dweruins02_lod_n.dds,
textures\dlc02\lod\dlc2dwewall01lod.dds,8,textures\dlc02\lod\dlc2dwewall01lod_n.dds,
textures\dlc02\lod\dlc2lodbasaltside.dds,8,textures\dlc02\lod\dlc2lodbasaltside_n.dds,
textures\dlc02\lod\dlc2mushroomtrees01lod.dds,8,textures\dlc02\lod\dlc2mushroomtrees01lod_n.dds,
textures\dlc02\lod\dlc2ravenrock01lod.dds,8,textures\dlc02\lod\dlc2ravenrock01lod_n.dds,
textures\dlc02\lod\dlc2ravenrock02lod.dds,8,textures\dlc02\lod\dlc2ravenrock02lod_n.dds,
textures\dlc02\lod\dlc2redoran01lod.dds,8,textures\dlc02\lod\dlc2redoran01lod_n.dds,
textures\dlc02\lod\dlc2road01ash01lod.dds,8,textures\dlc02\lod\dlc2road01ash01lod_n.dds,
textures\dlc02\lod\dlc2telmithryn01lod.dds,8,textures\dlc02\lod\dlc2telmithryn01lod_n.dds,
textures\dlc02\lod\dlc2telmithryn02lod.dds,8,textures\dlc02\lod\dlc2telmithryn02lod_n.dds,
textures\dlc02\lod\dlc2thirskmeadhall01lod.dds,8,textures\dlc02\lod\dlc2thirskmeadhall01lod_n.dds,
textures\dlc02\lod\lightmattwall02lod.dds,8,textures\dlc02\lod\lightmattwall02lod_n.dds,
textures\dlc02\lod\treepineforestbarkcompashlod.dds,8,textures\dlc02\lod\treepineforestbarkcompashlod_n.dds,
textures\dlc02\lod\volcanic_ash_01lod.dds,8,textures\dlc02\lod\volcanic_ash_01lod_n.dds,
textures\dlc02\lod\volcanic_ash_03lod.dds,8,textures\dlc02\lod\volcanic_ash_03lod_n.dds,
textures\dlc02\lod\volcanic_ash_04lod.dds,8,textures\dlc02\lod\volcanic_ash_04lod_n.dds,
textures\dlc02\lod\volcanic_ash_darkcliff_01lod.dds,8,textures\dlc02\lod\volcanic_ash_darkcliff_01lod_n.dds,
textures\dlc02\lod\volcanic_ash_rocks_01lod.dds,8,textures\dlc02\lod\volcanic_ash_rocks_01lod_n.dds,
textures\dlc02\lod\volcanic_ash_tundra_01lod.dds,8,textures\dlc02\lod\volcanic_ash_tundra_01lod_n.dds,
textures\dlc02\lod\volcanic_ash_tundra_02lod.dds,8,textures\dlc02\lod\volcanic_ash_tundra_02lod_n.dds,
textures\dlc02\lod\volcanic_ash_tundra_04lod.dds,8,textures\dlc02\lod\volcanic_ash_tundra_04lod_n.dds,
textures\dyndolod\lod\trees\tundradriftwood01_trunk_1.dds,8,textures\dyndolod\lod\trees\tundradriftwood01_trunk_1_n.dds,
textures\dyndolod\lod\trees\tundradriftwood01_trunk_2.dds,8,textures\dyndolod\lod\trees\tundradriftwood01_trunk_2_n.dds,
textures\effects\fxwhitewater03.dds,8,textures\effects\fxwatertile06_n.dds,
textures\landscape\trees\tundradriftwoodbranches01.dds,8,textures\landscape\trees\tundradriftwoodbranches01_n.dds,
textures\lod\brazierlod.dds,8,textures\lod\brazierlod_n.dds,
textures\lod\coastbeach01lod.dds,8,textures\lod\coastbeach01lod_n.dds,
textures\lod\coastoceanfloor01lod.dds,8,textures\lod\coastoceanfloor01lod_n.dds,
textures\lod\creeks\mxcreek_blue.dds,8,textures\default_n.dds,
textures\lod\dirt01lod.dds,8,textures\lod\dirt01lod_n.dds,
textures\lod\dirt02lod.dds,8,textures\lod\dirt02lod_n.dds,
textures\lod\dirtcliffs01lod.dds,8,textures\lod\dirtcliffs01lod_n.dds,
textures\lod\dirtsnowpath01lod.dds,8,textures\lod\dirtsnowpath01lod_n.dds,
textures\lod\dwedeco01lod.dds,8,textures\lod\dwedeco01lod_n.dds,
textures\lod\dwerockdesigns01lod.dds,8,textures\lod\dwerockdesigns01lod_n.dds,
textures\lod\dweruins01_lod.dds,8,textures\lod\dweruins01_lod_n.dds,
textures\lod\dweruins02_lod.dds,8,textures\lod\dweruins02_lod_n.dds,
textures\lod\dwestonefloor04lod.dds,8,textures\lod\dwestonefloor04lod_n.dds,
textures\lod\farmhouselod01.dds,8,textures\lod\farmhouselod01_n.dds,
textures\lod\fieldgrass02lod.dds,8,textures\lod\fieldgrass02lod_n.dds,
textures\lod\frozenmarshice01lod.dds,8,textures\lod\frozenmarshice01lod_n.dds,
textures\lod\fxdirtmound01lod.dds,8,textures\lod\fxdirtmound01lod_n.dds,
textures\lod\glacierslablod.dds,8,textures\lod\glacierslablod_n.dds,
textures\lod\icefloessolid02lod.dds,8,textures\lod\icefloessolid02lod_n.dds,
textures\lod\imperialfortlod.dds,8,textures\lod\imperialfortlod_n.dds,
textures\lod\impextrubble01lod.dds,8,textures\lod\impextrubble01lod_n.dds,
textures\lod\impextwall01lod.dds,8,textures\lod\impextwall01lod_n.dds,
textures\lod\impfloormuddy01lod.dds,8,textures\lod\impfloormuddy01lod_n.dds,
textures\lod\impwall01lod.dds,8,textures\lod\impwall01lod_n.dds,
textures\lod\impwall05lod.dds,8,textures\lod\impwall05lod_n.dds,
textures\lod\impwall06lod.dds,8,textures\lod\impwall06lod_n.dds,
textures\lod\largenordtent01lod.dds,8,textures\lod\largenordtent01lod_n.dds,
textures\lod\mountainpeak01lod.dds,8,textures\lod\mountainpeak01lod_n.dds,
textures\lod\mountainslab01lod.dds,8,textures\lod\mountainslab01lod_n.dds,
textures\lod\mountainslablod.dds,8,textures\lod\mountainslablod_n.dds,
textures\lod\mountaintrimalphalod.dds,8,textures\lod\mountaintrimalphalod_n.dds,
textures\lod\mrkbuildingslod01.dds,8,textures\lod\mrkbuildingslod01_n.dds,
textures\lod\mrkcolm01lod.dds,8,textures\lod\mrkcolm01lod_n.dds,
textures\lod\mtncliff01lod.dds,8,textures\lod\mtncliff01lod_n.dds,
textures\lod\mtncliff02lod.dds,8,textures\lod\mtncliff02lod_n.dds,
textures\lod\mtncliff03lod.dds,8,textures\lod\mtncliff03lod_n.dds,
textures\lod\mtncliff04lod.dds,8,textures\lod\mtncliff04lod_n.dds,
textures\lod\mtncliffsm01lod.dds,8,textures\lod\mtncliffsm01lod_n.dds,
textures\lod\mtnpeak02lod.dds,8,textures\lod\mtnpeak02lod_n.dds,
textures\lod\mtnridge01lod.dds,8,textures\lod\mtnridge01lod_n.dds,
textures\lod\mtnridge02lod.dds,8,textures\lod\mtnridge02lod_n.dds,
textures\lod\mtnridge03lod.dds,8,textures\lod\mtnridge03lod_n.dds,
textures\lod\mtntrimslablod.dds,8,textures\lod\mtntrimslablod_n.dds,
textures\lod\nordictempleext_lod.dds,8,textures\lod\nordictempleext_lod_n.dds,
textures\lod\norrunicamphitheatre01lod.dds,8,textures\lod\norrunicamphitheatre01lod_n.dds,
textures\lod\pineforest02lod.dds,8,textures\lod\pineforest02lod_n.dds,
textures\lod\reachmoss01lod.dds,8,textures\lod\reachmoss01lod_n.dds,
textures\lod\ridgedmossstone08lod.dds,8,textures\lod\ridgedmossstone08lod_n.dds,
textures\lod\ridgedstone01lod.dds,8,textures\lod\ridgedstone01lod_n.dds,
textures\lod\ridgedstone06lod.dds,8,textures\lod\ridgedstone06lod_n.dds,
textures\lod\ridgedstone08patternlod.dds,8,textures\lod\ridgedstone08patternlod_n.dds,
textures\lod\ridgedstonefloor01lod.dds,8,textures\lod\ridgedstonefloor01lod_n.dds,
textures\lod\riverbededgelod.dds,8,textures\lod\riverbededgelod_n.dds,
textures\lod\rivermudlod.dds,8,textures\lod\rivermudlod_n.dds,
textures\lod\road01lod.dds,8,textures\lod\road01lod_n.dds,
textures\lod\rocks01lod.dds,8,textures\lod\rocks01lod_n.dds,
textures\lod\rottingwood01lod.dds,8,textures\lod\rottingwood01lod_n.dds,
textures\lod\rtbuildingslod01.dds,8,textures\lod\rtbuildingslod01_n.dds,
textures\lod\rubblepilelod.dds,8,textures\lod\rubblepilelod_n.dds,
textures\lod\shiplod.dds,8,textures\lod\shiplod_n.dds,
textures\lod\shiproof01lod.dds,8,textures\lod\shiproof01lod_n.dds,
textures\lod\shiprope01lod.dds,8,textures\lod\shiprope01lod_n.dds,
textures\lod\shipwoodside01lod.dds,8,textures\lod\shipwoodside01lod_n.dds,
textures\lod\smallnordtentlod.dds,8,textures\lod\smallnordtentlod_n.dds,
textures\lod\smelter01lod.dds,8,textures\lod\smelter01lod_n.dds,
textures\lod\smim_shack_rooflod.dds,8,textures\lod\smim_shack_rooflod_n.dds,
textures\lod\smim_smelter_spoutlod.dds,8,textures\lod\smim_smelter_spoutlod_n.dds,
textures\lod\snow01landscapelod.dds,8,textures\lod\snow01landscapelod_n.dds,
textures\lod\snow01lod.dds,8,textures\lod\snow01lod_n.dds,
textures\lod\snowrocks01lod.dds,8,textures\lod\snowrocks01lod_n.dds,
textures\lod\stockadeplanks01lod.dds,8,textures\lod\stockadeplanks01lod_n.dds,
textures\lod\stockadeplanks01snowlod.dds,8,textures\lod\stockadeplanks01snowlod_n.dds,
textures\lod\stockadewood01lod.dds,8,textures\lod\stockadewood01lod_n.dds,
textures\lod\stockadewood01mixlod.dds,8,textures\lod\stockadewood01mixlod_n.dds,
textures\lod\stockadewood01snowlod.dds,8,textures\lod\stockadewood01snowlod_n.dds,
textures\lod\stonefloor01lod.dds,8,textures\lod\stonefloor01lod_n.dds,
textures\lod\stonewall01mixlod.dds,8,textures\lod\stonewall01mixlod_n.dds,
textures\lod\stonewall02lod.dds,8,textures\lod\stonewall02lod_n.dds,
textures\lod\tundradriftwoodbark01lod.dds,8,textures\lod\tundradriftwoodbark01lod_n.dds,
textures\lod\tundrarocks01lod.dds,8,textures\lod\tundrarocks01lod_n.dds,
textures\lod\volcanictundradirt01lod.dds,8,textures\lod\volcanictundradirt01lod_n.dds,
textures\lod\wovenfence01lod.dds,8,textures\lod\wovenfence01lod_n.dds,
textures\lod\wrbuildingslod01.dds,8,textures\lod\wrbuildingslod01_n.dds,
textures\lod\wrbuildingslod02.dds,8,textures\lod\wrbuildingslod02_n.dds,
textures\lod\wrwallslod01.dds,8,textures\lod\wrwallslod01_n.dds,
textures\lod\wrwoodbeam01lod.dds,8,textures\lod\wrwoodbeam01lod_n.dds,
textures\terrain\lodgen\dragonborn.esm\dlc2treepineshortheavysnow01_0003383c.dds,8,textures\default_n.dds,
textures\terrain\lodgen\dragonborn.esm\dlc2treepineshortheavysnow_0003383d.dds,8,textures\default_n.dds,
