textures\lod\dirt02lod.dds,8,textures\lod\dirt02lod_n.dds,
textures\lod\dirtcliffs01lod.dds,8,textures\lod\dirtcliffs01lod_n.dds,
textures\lod\fieldgrass01lod.dds,8,textures\lod\fieldgrass01lod_n.dds,
textures\lod\fieldgrass02lod.dds,8,textures\lod\fieldgrass02lod_n.dds,
textures\lod\mountainpeak01lod.dds,8,textures\lod\mountainpeak01lod_n.dds,
textures\lod\mountainslab01lod.dds,8,textures\lod\mountainslab01lod_n.dds,
textures\lod\mountainslablod.dds,8,textures\lod\mountainslablod_n.dds,
textures\lod\mountaintrimalphalod.dds,8,textures\lod\mountaintrimalphalod_n.dds,
textures\lod\mrkbuildingslod01.dds,8,textures\lod\mrkbuildingslod01_n.dds,
textures\lod\mtncliff01lod.dds,8,textures\lod\mtncliff01lod_n.dds,
textures\lod\mtncliff02lod.dds,8,textures\lod\mtncliff02lod_n.dds,
textures\lod\mtncliff03lod.dds,8,textures\lod\mtncliff03lod_n.dds,
textures\lod\mtncliff04lod.dds,8,textures\lod\mtncliff04lod_n.dds,
textures\lod\mtncliffsm01lod.dds,8,textures\lod\mtncliffsm01lod_n.dds,
textures\lod\mtnpeak02lod.dds,8,textures\lod\mtnpeak02lod_n.dds,
textures\lod\mtnridge01lod.dds,8,textures\lod\mtnridge01lod_n.dds,
textures\lod\mtnridge02lod.dds,8,textures\lod\mtnridge02lod_n.dds,
textures\lod\mtnridge03lod.dds,8,textures\lod\mtnridge03lod_n.dds,
textures\lod\mtntrimslablod.dds,8,textures\lod\mtntrimslablod_n.dds,
textures\lod\nordictempleext_lod.dds,8,textures\lod\nordictempleext_lod_n.dds,
textures\lod\pineforest02lod.dds,8,textures\lod\pineforest02lod_n.dds,
textures\lod\ridgedstone06lod.dds,8,textures\lod\ridgedstone06lod_n.dds,
textures\lod\road01lod.dds,8,textures\lod\road01lod_n.dds,
textures\lod\rocks01lod.dds,8,textures\lod\rocks01lod_n.dds,
textures\lod\rottingwood01lod.dds,8,textures\lod\rottingwood01lod_n.dds,
textures\lod\rubblepilelod.dds,8,textures\lod\rubblepilelod_n.dds,
textures\lod\snow01lod.dds,8,textures\lod\snow01lod_n.dds,
textures\lod\snowrocks01lod.dds,8,textures\lod\snowrocks01lod_n.dds,
textures\lod\tundrarocks01lod.dds,8,textures\lod\tundrarocks01lod_n.dds,
