0ACQ_HFR_TreeOak03 [TREE:0E0012C4] Billboard found textures\terrain\lodgen\the flora of skyrim trees sse.esp\srg_oak2_000012c4.dds D62F343F 1179.57092285156x1986.64575195313 1
0ACQ_HFR_TreeOak05 [TREE:0E0012C6] Billboard found textures\terrain\lodgen\the flora of skyrim trees sse.esp\srg_oak3_000012c6.dds 30D816E0 1063.84289550781x1448.63720703125 1
0ACQ_HFR_TreeOak05a [TREE:0E0012C7] Billboard found textures\terrain\lodgen\the flora of skyrim trees sse.esp\srg_oak4_000012c7.dds A34DD36B 721.386108398438x961.84814453125 1
0ACQ_HFR_TreeOak08 [TREE:0E0012C8] Billboard found textures\terrain\lodgen\the flora of skyrim trees sse.esp\srg_oak1_000012c8.dds 05B3EAC4 977.507202148438x2157.25732421875 1
LVTHSTreePineForestSnow01 [TREE:0E00AA8B] Billboard found textures\terrain\lodgen\the flora of skyrim trees sse.esp\lvttreepineforestsnowheavy01_0000aa8b.dds 39AAFBE2 974.285217285156x2545.07153320313 1
LVTHSTreePineForestSnow02 [TREE:0E00088F] Billboard found textures\terrain\lodgen\the flora of skyrim trees sse.esp\lvttreepineforestsnowheavy02_0000088f.dds 2AF7C8A1 690.649230957031x2525.80297851562 1
LVTHSTreePineForestSnow03 [TREE:0E000890] Billboard found textures\terrain\lodgen\the flora of skyrim trees sse.esp\lvttreepineforestsnowheavy03_00000890.dds 111BE410 388.549865722656x888.113952636719 1
LVTHSTreePineForestSnow04 [TREE:0E000891] Billboard found textures\terrain\lodgen\the flora of skyrim trees sse.esp\lvttreepineforestsnowheavy04_00000891.dds B183A532 729.443603515625x2122.01782226562 1
LVTHSTreePineForestSnow05 [TREE:0E000892] Billboard found textures\terrain\lodgen\the flora of skyrim trees sse.esp\lvttreepineforestsnowheavy05_00000892.dds 83CE7202 489.195220947266x1565.42468261719 1
LVTHSTreePineForestSnowDUPLICATE003 [TREE:0E000899] Billboard found textures\terrain\lodgen\the flora of skyrim trees sse.esp\lvttreepineforestsnowheavy02_00000899.dds 2AF7C8A1 690.649230957031x2525.80297851562 1
LVTHSTreePineForestSnowDUPLICATE004 [TREE:0E00089A] Billboard found textures\terrain\lodgen\the flora of skyrim trees sse.esp\lvttreepineforestsnowheavy03_0000089a.dds 111BE410 388.549865722656x888.113952636719 1
LVTHSTreePineForestSnowDUPLICATE005 [TREE:0E00089B] Billboard found textures\terrain\lodgen\the flora of skyrim trees sse.esp\lvttreepineforestsnowheavy04_0000089b.dds B183A532 729.443603515625x2122.01782226562 1
LVTHSTreePineForestSnowDUPLICATE006 [TREE:0E00089C] Billboard found textures\terrain\lodgen\the flora of skyrim trees sse.esp\lvttreepineforestsnowheavy05_0000089c.dds 83CE7202 489.195220947266x1565.42468261719 1
LVTHSTreePineForestSnowDUPLICATE007 [TREE:0E00AA8C] Billboard found textures\terrain\lodgen\the flora of skyrim trees sse.esp\lvttreepineforestsnowheavy02_0000aa8c.dds 2AF7C8A1 690.649230957031x2525.80297851562 1
LVTHSTreePineForestSnowDUPLICATE008 [TREE:0E00AA8D] Billboard found textures\terrain\lodgen\the flora of skyrim trees sse.esp\lvttreepineforestsnowheavy04_0000aa8d.dds B183A532 729.443603515625x2122.01782226562 1
LVTHSTreePineForestSnowDUPLICATE009 [TREE:0E00AB21] Billboard found textures\terrain\lodgen\the flora of skyrim trees sse.esp\lvttreepineforestsnowheavy03_0000ab21.dds 111BE410 388.549865722656x888.113952636719 1
LVTHSTreePineForestSnowDUPLICATE010 [TREE:0E00AB23] Billboard found textures\terrain\lodgen\the flora of skyrim trees sse.esp\lvttreepineforestsnowheavy05_0000ab23.dds 83CE7202 489.195220947266x1565.42468261719 1
LVTHSTreePineForestSnowL01 [TREE:0E00AB1A] Billboard found textures\terrain\lodgen\the flora of skyrim trees sse.esp\lvttreepineforestsnowheavyl01_0000ab1a.dds C54F12FA 972.367309570312x2540.0615234375 1
LVTHSTreePineForestSnowL02 [TREE:0E00AB1B] Billboard found textures\terrain\lodgen\the flora of skyrim trees sse.esp\lvttreepineforestsnowheavyl02_0000ab1b.dds 7CC90E5D 686.369873046875x2583.98071289062 1
LVTHSTreePineForestSnowL03 [TREE:0E00AB1C] Billboard found textures\terrain\lodgen\the flora of skyrim trees sse.esp\lvttreepineforestsnowheavyl03_0000ab1c.dds 4B5ABCB8 427.564392089844x912.137390136719 1
LVTHSTreePineForestSnowL04 [TREE:0E00AB1D] Billboard found textures\terrain\lodgen\the flora of skyrim trees sse.esp\lvttreepineforestsnowheavyl04_0000ab1d.dds DFBE9991 709.932373046875x2163.603515625 1
LVTHSTreePineForestSnowL05 [TREE:0E00AB1E] Billboard found textures\terrain\lodgen\the flora of skyrim trees sse.esp\lvttreepineforestsnowheavyl05_0000ab1e.dds 7A29550C 488.132080078125x1487.640625 1
NewScotsPine1 [TREE:0E00ABA3] Billboard found textures\terrain\lodgen\the flora of skyrim trees sse.esp\newscotspine01_0000aba3.dds 8C152890 752.596923828125x1926.64807128906 1
SFO1TreePineForestSnow01 [TREE:0E000804] Billboard found textures\terrain\lodgen\the flora of skyrim trees sse.esp\sfo1treepineforestsnowheavy01_00000804.dds 4AD7C2EB 526.659118652344x1605.05639648438 1
SFO1TreePineForestSnow02 [TREE:0E000803] Billboard found textures\terrain\lodgen\the flora of skyrim trees sse.esp\sfo1treepineforestsnowheavy02_00000803.dds 121E5CB8 775.538330078125x2481.72265625 1
SFO1TreePineForestSnow03 [TREE:0E000802] Billboard found textures\terrain\lodgen\the flora of skyrim trees sse.esp\sfo1treepineforestsnowheavy03_00000802.dds A93D8714 408.664978027344x934.091369628906 1
SFO1TreePineForestSnow04 [TREE:0E000801] Billboard found textures\terrain\lodgen\the flora of skyrim trees sse.esp\sfo1treepineforestsnowheavy04_00000801.dds 8344AA52 619.348388671875x2477.3935546875 1
SFO1TreePineForestSnow05 [TREE:0E000800] Billboard found textures\terrain\lodgen\the flora of skyrim trees sse.esp\sfo1treepineforestsnowheavy05_00000800.dds 06D00844 317.507873535156x923.659240722656 1
SFO1TreePineForestSnowL01 [TREE:0E000809] Billboard found textures\terrain\lodgen\the flora of skyrim trees sse.esp\sfo1treepineforestsnowheavyl01_00000809.dds 3B0294A0 815.426696777344x2820.935546875 1
SFO1TreePineForestSnowL02 [TREE:0E000808] Billboard found textures\terrain\lodgen\the flora of skyrim trees sse.esp\sfo1treepineforestsnowheavyl02_00000808.dds F2693BF1 619.348388671875x2477.3935546875 1
SFO1TreePineForestSnowL03 [TREE:0E000807] Billboard found textures\terrain\lodgen\the flora of skyrim trees sse.esp\sfo1treepineforestsnowheavyl03_00000807.dds 8F17718A 408.664978027344x934.091369628906 1
SFO1TreePineForestSnowL04 [TREE:0E000806] Billboard found textures\terrain\lodgen\the flora of skyrim trees sse.esp\sfo1treepineforestsnowheavyl04_00000806.dds 3E8E54A4 661.049926757812x1762.7998046875 1
SFO1TreePineForestSnowL05 [TREE:0E000805] Billboard found textures\terrain\lodgen\the flora of skyrim trees sse.esp\sfo1treepineforestsnowheavyl05_00000805.dds 4354F1C7 711.564208984375x2168.57666015625 1
Spook_TreePineForestSnowHeavy01 [TREE:0E005901] Billboard found textures\terrain\lodgen\the flora of skyrim trees sse.esp\treepineforestsnowheavy01_00005901.dds F6E239CF 974.285217285156x2545.07153320313 1
Spook_TreePineForestSnowHeavy02 [TREE:0E005902] Billboard found textures\terrain\lodgen\the flora of skyrim trees sse.esp\treepineforestsnowheavy02_00005902.dds EC94F057 711.794372558594x2530.82446289062 1
Spook_TreePineForestSnowHeavy03 [TREE:0E005903] Billboard found textures\terrain\lodgen\the flora of skyrim trees sse.esp\treepineforestsnowheavy03_00005903.dds 653A9FAC 391.708770751953x895.334350585938 1
Spook_TreePineForestSnowHeavy04 [TREE:0E005904] Billboard found textures\terrain\lodgen\the flora of skyrim trees sse.esp\treepineforestsnowheavy04_00005904.dds E090C778 738.197021484375x2147.48217773438 1
Spook_TreePineForestSnowHeavy05 [TREE:0E005905] Billboard found textures\terrain\lodgen\the flora of skyrim trees sse.esp\treepineforestsnowheavy05_00005905.dds 7B481363 491.159851074219x1571.71154785156 1
Spook_TreePineForestSnowHeavyL01 [TREE:0E00AA07] Billboard found textures\terrain\lodgen\the flora of skyrim trees sse.esp\treepineforestsnowheavyl01_0000aa07.dds 798A4740 974.285217285156x2545.07153320313 1
Spook_TreePineForestSnowHeavyL02 [TREE:0E00AA08] Billboard found textures\terrain\lodgen\the flora of skyrim trees sse.esp\treepineforestsnowheavyl02_0000aa08.dds D5BE7B42 709.383483886719x2594.31665039062 1
Spook_TreePineForestSnowHeavyL03 [TREE:0E00AA09] Billboard found textures\terrain\lodgen\the flora of skyrim trees sse.esp\treepineforestsnowheavyl03_0000aa09.dds 0ACBAD2A 427.564392089844x912.137390136719 1
Spook_TreePineForestSnowHeavyL04 [TREE:0E00AA0A] Billboard found textures\terrain\lodgen\the flora of skyrim trees sse.esp\treepineforestsnowheavyl04_0000aa0a.dds F50CE0EB 712.749572753906x2172.18920898438 1
Spook_TreePineForestSnowHeavyL05 [TREE:0E00AA0B] Billboard found textures\terrain\lodgen\the flora of skyrim trees sse.esp\treepineforestsnowheavyl05_0000aa0b.dds 0865BE8C 519.725463867188x1511.92858886719 1
TreeAspen01 [TREE:0006A9E6] Billboard found textures\terrain\lodgen\skyrim.esm\srg_oak1_0006a9e6.dds 05B3EAC4 977.507202148438x2157.25732421875 1
TreeAspen02 [TREE:0006C9D5] Billboard found textures\terrain\lodgen\skyrim.esm\srg_oak2_0006c9d5.dds D62F343F 1179.57092285156x1986.64575195313 1
TreeAspen03 [TREE:0006C9D4] Billboard found textures\terrain\lodgen\skyrim.esm\srg_oak3_0006c9d4.dds 30D816E0 1063.84289550781x1448.63720703125 1
TreeAspen05 [TREE:0007614B] Billboard found textures\terrain\lodgen\skyrim.esm\srg_oak5_0007614b.dds 5BA9D82E 368.359619140625x736.71923828125 1
TreeAspen06 [TREE:0007614A] Billboard found textures\terrain\lodgen\skyrim.esm\srg_oak6_0007614a.dds E8A9BE42 721.386108398438x961.84814453125 1
TreePineForest01 [TREE:0001306D] Billboard found textures\terrain\lodgen\skyrim.esm\treepineforest01_0001306d.dds F195DFD8 950.644287109375x2535.05151367187 1
TreePineForest01Dead [TREE:000B927A] Billboard found textures\terrain\lodgen\skyrim.esm\treepineforestdead01_000b927a.dds F81F06CB 535.556213378906x1713.77990722656 1
Treepineforest01_large [TREE:0E000D62] Billboard found textures\terrain\lodgen\the flora of skyrim trees sse.esp\treepineforest01_large_00000d62.dds 4544E4A1 1428.78466796875x3810.09228515625 1
Treepineforest01_largeDUPLICATE001 [TREE:0E00598E] Billboard found textures\terrain\lodgen\the flora of skyrim trees sse.esp\treepineforest01_large_0000598e.dds 4544E4A1 1428.78466796875x3810.09228515625 1
Treepineforest01_largeDUPLICATE002 [TREE:0E00AA92] Billboard found textures\terrain\lodgen\the flora of skyrim trees sse.esp\treepineforest01_large_0000aa92.dds 4544E4A1 1428.78466796875x3810.09228515625 1
Treepineforest01_largeDUPLICATE003 [TREE:0E00AA9A] Billboard found textures\terrain\lodgen\the flora of skyrim trees sse.esp\treepineforest01_large_0000aa9a.dds 4544E4A1 1428.78466796875x3810.09228515625 1
TreePineForest02 [TREE:00018A02] Billboard found textures\terrain\lodgen\skyrim.esm\sfotreepineforest02_00018a02.dds 51E22E60 708.969787597656x2520.78149414062 1
TreePineForest02Dead [TREE:000B927B] Billboard found textures\terrain\lodgen\skyrim.esm\treepineforestdead02_000b927b.dds 475B08E2 620.152404785156x2480.60961914062 1
Treepineforest02_large [TREE:0E000D63] Billboard found textures\terrain\lodgen\the flora of skyrim trees sse.esp\treepineforest02_large_00000d63.dds 90D6CB4D 1033.91430664062x3781.17236328125 1
Treepineforest02_largeDUPLICATE001 [TREE:0E00598D] Billboard found textures\terrain\lodgen\the flora of skyrim trees sse.esp\treepineforest02_large_0000598d.dds 90D6CB4D 1033.91430664062x3781.17236328125 1
Treepineforest02_largeDUPLICATE002 [TREE:0E005992] Billboard found textures\terrain\lodgen\the flora of skyrim trees sse.esp\treepineforest02_large_00005992.dds 90D6CB4D 1033.91430664062x3781.17236328125 1
Treepineforest02_largeDUPLICATE003 [TREE:0E00AA90] Billboard found textures\terrain\lodgen\the flora of skyrim trees sse.esp\treepineforest02_large_0000aa90.dds 90D6CB4D 1033.91430664062x3781.17236328125 1
Treepineforest02_largeDUPLICATE004 [TREE:0E00AA99] Billboard found textures\terrain\lodgen\the flora of skyrim trees sse.esp\treepineforest02_large_0000aa99.dds 90D6CB4D 1033.91430664062x3781.17236328125 1
TreePineForest03 [TREE:0004B016] Billboard found textures\terrain\lodgen\skyrim.esm\treepineforest03_0004b016.dds B925FF9E 360.796295166016x888.113952636719 1
TreePineForest03Dead [TREE:000B927C] Billboard found textures\terrain\lodgen\skyrim.esm\letreepineforestdead03_000b927c.dds 6E0C6C9D 395.935089111328x1809.98901367187 1
Treepineforest03_large [TREE:0E000D64] Billboard found textures\terrain\lodgen\the flora of skyrim trees sse.esp\treepineforest03_large_00000d64.dds 8B52712C 601.221496582031x1326.83361816406 1
Treepineforest03_largeDUPLICATE001 [TREE:0E00598C] Billboard found textures\terrain\lodgen\the flora of skyrim trees sse.esp\treepineforest03_large_0000598c.dds 8B52712C 601.221496582031x1326.83361816406 1
Treepineforest03_largeDUPLICATE002 [TREE:0E005991] Billboard found textures\terrain\lodgen\the flora of skyrim trees sse.esp\treepineforest03_large_00005991.dds 8B52712C 601.221496582031x1326.83361816406 1
Treepineforest03_largeDUPLICATE003 [TREE:0E00AA8E] Billboard found textures\terrain\lodgen\the flora of skyrim trees sse.esp\treepineforest03_large_0000aa8e.dds 8B52712C 601.221496582031x1326.83361816406 1
Treepineforest03_largeDUPLICATE004 [TREE:0E00AA98] Billboard found textures\terrain\lodgen\the flora of skyrim trees sse.esp\treepineforest03_large_0000aa98.dds 8B52712C 601.221496582031x1326.83361816406 1
TreePineForest04 [TREE:0004FBB0] Billboard found textures\terrain\lodgen\skyrim.esm\sfotreepineforest04_0004fbb0.dds 02AEFC2C 771.381652832031x2146.45336914062 1
TreePineForest04Dead [TREE:000B927D] Billboard found textures\terrain\lodgen\skyrim.esm\treepineforestdead04_000b927d.dds 070AD110 671.088195800781x2147.48217773438 1
Treepineforest04_large [TREE:0E000D65] Billboard found textures\terrain\lodgen\the flora of skyrim trees sse.esp\treepineforest04_large_00000d65.dds 61BCCC9D 1000.6640625x3202.125 1
Treepineforest04_largeDUPLICATE001 [TREE:0E005906] Billboard found textures\terrain\lodgen\the flora of skyrim trees sse.esp\treepineforest04_large_00005906.dds 61BCCC9D 1000.6640625x3202.125 1
Treepineforest04_largeDUPLICATE002 [TREE:0E00598B] Billboard found textures\terrain\lodgen\the flora of skyrim trees sse.esp\treepineforest04_large_0000598b.dds 61BCCC9D 1000.6640625x3202.125 1
Treepineforest04_largeDUPLICATE003 [TREE:0E005990] Billboard found textures\terrain\lodgen\the flora of skyrim trees sse.esp\treepineforest04_large_00005990.dds 61BCCC9D 1000.6640625x3202.125 1
Treepineforest04_largeDUPLICATE004 [TREE:0E00AA97] Billboard found textures\terrain\lodgen\the flora of skyrim trees sse.esp\treepineforest04_large_0000aa97.dds 61BCCC9D 1000.6640625x3202.125 1
TreePineForest05 [TREE:00051126] Billboard found textures\terrain\lodgen\skyrim.esm\sfotreepineforest05_00051126.dds DEFFFF5B 671.088195800781x2147.48217773438 1
TreePineForest05Dead [TREE:000B927E] Billboard found textures\terrain\lodgen\skyrim.esm\srgtreepineforestdead05_000b927e.dds DA7DBF90 201.90119934082x807.604797363281 1
Treepineforest05_large [TREE:0E000D66] Billboard found textures\terrain\lodgen\the flora of skyrim trees sse.esp\treepineforest05_large_00000d66.dds E83F2EBC 732.198120117187x2231.4609375 1
Treepineforest05_largeDUPLICATE001 [TREE:0E005907] Billboard found textures\terrain\lodgen\the flora of skyrim trees sse.esp\treepineforest05_large_00005907.dds E83F2EBC 732.198120117187x2231.4609375 1
Treepineforest05_largeDUPLICATE002 [TREE:0E00598A] Billboard found textures\terrain\lodgen\the flora of skyrim trees sse.esp\treepineforest05_large_0000598a.dds E83F2EBC 732.198120117187x2231.4609375 1
Treepineforest05_largeDUPLICATE003 [TREE:0E00598F] Billboard found textures\terrain\lodgen\the flora of skyrim trees sse.esp\treepineforest05_large_0000598f.dds E83F2EBC 732.198120117187x2231.4609375 1
Treepineforest05_largeDUPLICATE004 [TREE:0E00AA96] Billboard found textures\terrain\lodgen\the flora of skyrim trees sse.esp\treepineforest05_large_0000aa96.dds E83F2EBC 732.198120117187x2231.4609375 1
Treepineforestdead02_large [TREE:0E000D68] Billboard found textures\terrain\lodgen\the flora of skyrim trees sse.esp\treepineforestdead02_large_00000d68.dds 31918C30 703.720397949219x2502.11694335938 1
Treepineforestdead03_large [TREE:0E000D69] Billboard found textures\terrain\lodgen\the flora of skyrim trees sse.esp\treepineforestdead03_large_00000d69.dds 96A47C6F 578.001770019531x1370.07824707031 1
Treepineforestdead04_large [TREE:0E000D6A] Billboard found textures\terrain\lodgen\the flora of skyrim trees sse.esp\treepineforestdead04_large_00000d6a.dds 24CBC2B4 704.695373535156x2147.64306640625 1
Treepineforestdead05_large [TREE:0E000D6B] Billboard found textures\terrain\lodgen\the flora of skyrim trees sse.esp\treepineforestdead05_large_00000d6b.dds DA7DBF90 201.90119934082x807.604797363281 1
TreePineForestSnow01 [TREE:0005C072] Billboard found textures\terrain\lodgen\skyrim.esm\treepineforestsnow01_0005c072.dds A40522FC 990.254516601562x2535.05151367187 1
TreePineForestSnow02 [TREE:0005C071] Billboard found textures\terrain\lodgen\skyrim.esm\treepineforestsnow02_0005c071.dds EA4788C3 711.794372558594x2530.82446289062 1
TreePineForestSnow02Dead [TREE:000EF5A4] Billboard found textures\terrain\lodgen\skyrim.esm\treepineforestdeadsnow02_000ef5a4.dds E766CEC0 666.914916992188x2510.73852539062 1
TreePineForestSnow03 [TREE:0005C070] Billboard found textures\terrain\lodgen\skyrim.esm\treepineforestsnow03_0005c070.dds D7A3331D 376.196136474609x891.724182128906 1
TreePineForestSnow03Dead [TREE:000EF5A3] Billboard found textures\terrain\lodgen\skyrim.esm\letreepineforestdeadsnow03_000ef5a3.dds CBA08A77 201.90119934082x807.604797363281 1
TreePineForestSnow04 [TREE:0005C06F] Billboard found textures\terrain\lodgen\skyrim.esm\treepineforestsnow04_0005c06f.dds 3680008F 671.088195800781x2147.48217773438 1
TreePineForestSnow04Dead [TREE:000EF5A2] Billboard found textures\terrain\lodgen\skyrim.esm\letreepineforestdeadsnow04_000ef5a2.dds F76A6D11 543.350952148438x2483.89013671875 1
TreePineForestSnow05 [TREE:0005C06E] Billboard found textures\terrain\lodgen\skyrim.esm\treepineforestsnow05_0005c06e.dds 8AE59609 496.1015625x1511.92858886719 1
TreePineForestSnow05Dead [TREE:000EF5A1] Billboard found textures\terrain\lodgen\skyrim.esm\letreepineforestdeadsnow05_000ef5a1.dds 8B60436D 1909.18249511719x1328.126953125 1
TreePineForestSnowL01 [TREE:0005D2DB] Billboard found textures\terrain\lodgen\skyrim.esm\treepineforestsnowl01_0005d2db.dds 0E0CE40E 943.12939453125x2515.01171875 1
TreePineForestSnowL01Dead [TREE:000EF5A0] Billboard found textures\terrain\lodgen\skyrim.esm\treepineforestdeadsnowl01_000ef5a0.dds 71C2D502 861.090881347656x2504.99169921875 1
TreePineForestSnowL02 [TREE:0005D2DA] Billboard found textures\terrain\lodgen\skyrim.esm\treepineforestsnowl02_0005d2da.dds 1E2CF497 666.914916992188x2510.73852539062 1
TreePineForestSnowL02Dead [TREE:000EF59F] Billboard found textures\terrain\lodgen\skyrim.esm\letreepineforestdeadsnowl02_000ef59f.dds 05163573 1510.6953125x1239.544921875 1
TreePineForestSnowL03 [TREE:0005D2D9] Billboard found textures\terrain\lodgen\skyrim.esm\treepineforestsnowl03_0005d2d9.dds 59616CAC 385.390899658203x880.893493652344 1
TreePineForestSnowL03Dead [TREE:000EF59E] Billboard found textures\terrain\lodgen\skyrim.esm\letreepineforestdeadsnowl03_000ef59e.dds 6E33B94C 873.93115234375x1035.77026367188 1
TreePineForestSnowL04 [TREE:0005D2D8] Billboard found textures\terrain\lodgen\skyrim.esm\treepineforestsnowl04_0005d2d8.dds A5A3A418 663.130554199219x2122.01782226562 1
TreePineForestSnowL04Dead [TREE:000EF59D] Billboard found textures\terrain\lodgen\skyrim.esm\treepineforestdeadsnowl04_000ef59d.dds CF4300FA 720.690307617187x2096.5537109375 1
TreePineForestSnowL05 [TREE:0005D2D7] Billboard found textures\terrain\lodgen\skyrim.esm\treepineforestsnowl05_0005d2d7.dds C1C0073D 464.8876953125x1487.640625 1
TreePineForestSnowL05Dead [TREE:000EF59C] Billboard found textures\terrain\lodgen\skyrim.esm\treepineforestdeadsnowl05_000ef59c.dds F574C33A 447.810180664063x1432.99255371094 1
TreeReachCliffTree01 [TREE:000B8A76] Billboard found textures\terrain\lodgen\skyrim.esm\reachclifftree01_000b8a76.dds FB0E8741 562.048461914063x642.341125488281 1
TreeReachCliffTree01Green [TREE:0E00AB20] Billboard found textures\terrain\lodgen\the flora of skyrim trees sse.esp\gkbreachclifftree01_0000ab20.dds 486330FF 620.929809570312x620.929809570312 1
TreeReachCliffTree02 [TREE:000B8A77] Billboard found textures\terrain\lodgen\skyrim.esm\reachclifftree02_000b8a77.dds 2715C2C3 683.116455078125x520.469665527344 1
TreeReachCliffTree02Green [TREE:0E00AB1F] Billboard found textures\terrain\lodgen\the flora of skyrim trees sse.esp\gkbreachclifftree02_0000ab1f.dds 1FD7BF2F 677.973266601562x471.633575439453 1
TreeReachTree01 [TREE:000B8A73] Billboard found textures\terrain\lodgen\skyrim.esm\reachtree01_000b8a73.dds 9B40FB71 627.835205078125x669.690856933594 1
TreeReachTree01Green [TREE:0E00AB22] Billboard found textures\terrain\lodgen\the flora of skyrim trees sse.esp\reachtree0gkb1_0000ab22.dds 1B3B33A4 617.457763671875x658.62158203125 1
TreeReachTree01Magic [TREE:000F64BF] Billboard found textures\terrain\lodgen\skyrim.esm\treereachtree01magic_000f64bf.dds 94E8BB4C 930.44921875x1102.75463867188 1
TreeReachTree01Snow [TREE:0006B1B8] Billboard found textures\terrain\lodgen\skyrim.esm\reachtree01_0006b1b8.dds 6A548EAA 622.646484375x664.15625 1
TreeReachTree01Winterhold [TREE:00109716] Billboard found textures\terrain\lodgen\skyrim.esm\reachtree01_00109716.dds 6A548EAA 622.646484375x664.15625 1
TreeReachTree02 [TREE:000B8A74] Billboard found textures\terrain\lodgen\skyrim.esm\reachtree02_000b8a74.dds ECDC53F3 533.939514160156x776.639282226563 1
TreeTundraDriftWoodTree01 [TREE:000B8F53] Billboard found textures\terrain\lodgen\skyrim.esm\tundradriftwood01_000b8f53.dds C6F70504 428.793029785156x596.581604003906 1
XJKappleGreentree "Apple tree" [TREE:11003274] Billboard found textures\terrain\lodgen\jks skyrim.esp\citsgreenappletree_00003274.dds BCFE941D 373.9267578125x373.9267578125 1
XJKappleredtree "Apple tree" [TREE:11002C91] Billboard found textures\terrain\lodgen\jks skyrim.esp\citsredappletree_00002c91.dds 85A2C5D4 373.9267578125x373.9267578125 1
